{
    "schema_version": 2,
    "timestamp": 1694711074,
    "workspace": {
        "0": [
            [
                {
                    "panes": [
                        {
                            "type": "term",
                            "directory": "/home/krafi/.config/guake/bacup",
                            "custom_colors": {
                                "fg_color": null,
                                "bg_color": null,
                                "palette": null
                            }
                        }
                    ],
                    "label": "krafi@nixos:~/.config/guake/bacup",
                    "custom_label_set": false
                },
                {
                    "panes": [
                        {
                            "type": "term",
                            "directory": "/home/krafi",
                            "custom_colors": {
                                "fg_color": null,
                                "bg_color": null,
                                "palette": null
                            }
                        }
                    ],
                    "label": "krafi@nixos:~",
                    "custom_label_set": false
                },
                {
                    "panes": [
                        {
                            "type": "term",
                            "directory": "/home/krafi/arch-star-blue/archiso/airootfs/etc/skel/.config/autostart",
                            "custom_colors": {
                                "fg_color": null,
                                "bg_color": null,
                                "palette": null
                            }
                        }
                    ],
                    "label": "krafi@nixos:~/arch-star-blue/archiso/airootfs/etc/skel/.config/autostart",
                    "custom_label_set": false
                },
                {
                    "panes": [
                        {
                            "type": "term",
                            "directory": "/home/krafi/nixos_config",
                            "custom_colors": {
                                "fg_color": null,
                                "bg_color": null,
                                "palette": null
                            }
                        }
                    ],
                    "label": "krafi@nixos:~",
                    "custom_label_set": false
                }
            ]
        ]
    }
}